[
  {
    "Prenom": "Robert",
    "Nom": "Lepingre",
    "Email": "bobby@exemple.com",
    "Age": 41,
    "Ville": "Paris"
  },
  {
    "Prenom": "Jeanne",
    "Nom": "Ducoux",
    "Email": "jeanne@exemple.com",
    "Age": 32,
    "Ville": "Marseille"
  },
  {
    "Prenom": "Pierre",
    "Nom": "Lenfant",
    "Email": "pierre@exemple.com",
    "Age": 23,
    "Ville": "Rennes"
  },
  {
    "Prenom": "Gerard",
    "Nom": "Manfain",
    "Email": "gerard@exemple.com",
    "Age": 15,
    "Ville": "Nice"
  },
  {
    "Prenom": "Agathe",
    "Nom": "Zeublouse",
    "Email": "agathe@exemple.com",
    "Age": 18,
    "Ville": "Toulon"
  }
]